{
	"info": {
		"_postman_id": "253ffb90-af4b-4745-9d18-f37f356412e6",
		"name": "Project",
		"schema": "https://schema.getpostman.com/json/collection/v2.1.0/collection.json"
	},
	"item": [
		{
			"name": "REGISTER(pls Create one user)",
			"request": {
				"method": "POST",
				"header": [],
				"body": {
					"mode": "raw",
					"raw": "{\r\n    \"firstname\": \"Javad\",\r\n    \"lastname\": \"Muradov\",\r\n    \"email\": \"jmurdov4675@ada.edu.az\",\r\n    \"password\": \"qwerty\"\r\n}",
					"options": {
						"raw": {
							"language": "json"
						}
					}
				},
				"url": {
					"raw": "http://localhost:8080/auth/register",
					"protocol": "http",
					"host": [
						"localhost"
					],
					"port": "8080",
					"path": [
						"auth",
						"register"
					]
				}
			},
			"response": []
		},
		{
			"name": "Login",
			"request": {
				"method": "GET",
				"header": [
					{
						"key": "email",
						"value": "jmurdov4675@ada.edu.az",
						"type": "text"
					},
					{
						"key": "password",
						"value": "qwerty",
						"type": "text"
					}
				],
				"url": {
					"raw": "http://localhost:8080/auth/login",
					"protocol": "http",
					"host": [
						"localhost"
					],
					"port": "8080",
					"path": [
						"auth",
						"login"
					]
				}
			},
			"response": []
		},
		{
			"name": "List-All-Books",
			"request": {
				"method": "GET",
				"header": [],
				"url": {
					"raw": "http://localhost:8080/books",
					"protocol": "http",
					"host": [
						"localhost"
					],
					"port": "8080",
					"path": [
						"books"
					]
				}
			},
			"response": []
		},
		{
			"name": "List-Available-Books",
			"request": {
				"method": "GET",
				"header": [
					{
						"key": "available",
						"value": "true",
						"type": "text"
					}
				],
				"url": {
					"raw": "http://localhost:8080/books/available",
					"protocol": "http",
					"host": [
						"localhost"
					],
					"port": "8080",
					"path": [
						"books",
						"available"
					]
				}
			},
			"response": []
		},
		{
			"name": "AddNewBookToLibrary",
			"request": {
				"method": "POST",
				"header": [],
				"body": {
					"mode": "raw",
					"raw": "{\r\n    \"bookName\": \"\",\r\n    \"authorName\": \"\",\r\n    \"authorSurname\": \"\",\r\n    \"category\": \"\",\r\n    \"available\": \"true\"\r\n}",
					"options": {
						"raw": {
							"language": "json"
						}
					}
				},
				"url": {
					"raw": "http://localhost:8080/books/newbook",
					"protocol": "http",
					"host": [
						"localhost"
					],
					"port": "8080",
					"path": [
						"books",
						"newbook"
					]
				}
			},
			"response": []
		},
		{
			"name": "SearchByCategory",
			"request": {
				"method": "GET",
				"header": [
					{
						"key": "category",
						"value": "Drama",
						"type": "text"
					}
				],
				"url": {
					"raw": "http://localhost:8080/books/category",
					"protocol": "http",
					"host": [
						"localhost"
					],
					"port": "8080",
					"path": [
						"books",
						"category"
					]
				}
			},
			"response": []
		},
		{
			"name": "SearchByCategoryAndAuthor",
			"request": {
				"method": "GET",
				"header": [
					{
						"key": "category",
						"value": "Drama",
						"type": "text"
					},
					{
						"key": "authorName",
						"value": "Shakespeare",
						"type": "text"
					}
				],
				"url": {
					"raw": "http://localhost:8080/books/authorAndCategory",
					"protocol": "http",
					"host": [
						"localhost"
					],
					"port": "8080",
					"path": [
						"books",
						"authorAndCategory"
					]
				}
			},
			"response": []
		},
		{
			"name": "SearchByAuthorname",
			"request": {
				"method": "GET",
				"header": [
					{
						"key": "authorName",
						"value": "Shakespeare",
						"type": "text"
					}
				],
				"url": {
					"raw": "http://localhost:8080/books/authorName",
					"protocol": "http",
					"host": [
						"localhost"
					],
					"port": "8080",
					"path": [
						"books",
						"authorName"
					]
				}
			},
			"response": []
		},
		{
			"name": "SearchByBookName",
			"request": {
				"method": "GET",
				"header": [
					{
						"key": "bookName",
						"value": "Gone_Girl",
						"type": "text"
					}
				],
				"url": {
					"raw": "http://localhost:8080/books/bookName",
					"protocol": "http",
					"host": [
						"localhost"
					],
					"port": "8080",
					"path": [
						"books",
						"bookName"
					]
				}
			},
			"response": []
		},
		{
			"name": "ShowBooksofUser",
			"request": {
				"method": "GET",
				"header": [
					{
						"key": "token",
						"value": "",
						"type": "text"
					}
				],
				"url": {
					"raw": "http://localhost:8080/myprofile",
					"protocol": "http",
					"host": [
						"localhost"
					],
					"port": "8080",
					"path": [
						"myprofile"
					]
				}
			},
			"response": []
		},
		{
			"name": "AddBookToProfile",
			"request": {
				"method": "GET",
				"header": [
					{
						"key": "token",
						"value": "",
						"type": "text"
					}
				],
				"url": {
					"raw": "http://localhost:8080/myprofile/add/3",
					"protocol": "http",
					"host": [
						"localhost"
					],
					"port": "8080",
					"path": [
						"myprofile",
						"add",
						"3"
					]
				}
			},
			"response": []
		},
		{
			"name": "DropBookFromProfile",
			"request": {
				"method": "GET",
				"header": [
					{
						"key": "token",
						"value": "",
						"type": "text"
					}
				],
				"url": {
					"raw": "http://localhost:8080/myprofile/drop/3",
					"protocol": "http",
					"host": [
						"localhost"
					],
					"port": "8080",
					"path": [
						"myprofile",
						"drop",
						"3"
					]
				}
			},
			"response": []
		},
		{
			"name": "ShowBookByID(With its comments)",
			"protocolProfileBehavior": {
				"disableBodyPruning": true
			},
			"request": {
				"method": "GET",
				"header": [],
				"body": {
					"mode": "raw",
					"raw": ""
				},
				"url": {
					"raw": "http://localhost:8080/books/bookId/",
					"protocol": "http",
					"host": [
						"localhost"
					],
					"port": "8080",
					"path": [
						"books",
						"bookId",
						""
					]
				}
			},
			"response": []
		},
		{
			"name": "AddNewComment",
			"request": {
				"method": "POST",
				"header": [
					{
						"key": "token",
						"value": "",
						"type": "text"
					}
				],
				"body": {
					"mode": "raw",
					"raw": "This is just amazing"
				},
				"url": {
					"raw": "http://localhost:8080/comments/add-NewComment/",
					"protocol": "http",
					"host": [
						"localhost"
					],
					"port": "8080",
					"path": [
						"comments",
						"add-NewComment",
						""
					]
				}
			},
			"response": []
		},
		{
			"name": "ReplyToComment",
			"request": {
				"method": "POST",
				"header": [
					{
						"key": "token",
						"value": "",
						"type": "text"
					}
				],
				"body": {
					"mode": "raw",
					"raw": "You are right my friend"
				},
				"url": {
					"raw": "http://localhost:8080/comments/replyToComment/",
					"protocol": "http",
					"host": [
						"localhost"
					],
					"port": "8080",
					"path": [
						"comments",
						"replyToComment",
						""
					]
				}
			},
			"response": []
		}
	]
}